<svg id="Calque_1" data-name="Calque 1" xmlns="http://www.w3.org/2000/svg" viewBox="0 0 289.3 554">
<title>localisation</title>
<path d="M524.65,167.65c0,79.88-143.2,409.35-143.2,409.35s-146.1-329.47-146.1-409.35a144.65,144.65,0,1,1,289.3,0Z" 
transform="translate(-235.35 -23)" style="fill:#41b883"/>
<circle cx="144.65" cy="122.23" r="84.62" style="fill:#fff"/></svg>